{
   "abstract" : "Make die() print the error to both STDOUT and SDERR, then die.",
   "author" : [
      "Jan Herout <jan.herout@gmail.com>"
   ],
   "dynamic_config" : 0,
   "generated_by" : "Minilla/v3.1.15, CPAN::Meta::Converter version 2.150010",
   "license" : [
      "perl_5"
   ],
   "meta-spec" : {
      "url" : "http://search.cpan.org/perldoc?CPAN::Meta::Spec",
      "version" : 2
   },
   "name" : "Die-To-Stdout",
   "no_index" : {
      "directory" : [
         "t",
         "xt",
         "inc",
         "share",
         "eg",
         "examples",
         "author",
         "builder"
      ]
   },
   "prereqs" : {
      "configure" : {
         "requires" : {
            "Module::Build::Tiny" : "0.035"
         }
      },
      "develop" : {
         "requires" : {
            "Test::CPAN::Meta" : "0",
            "Test::MinimumVersion::Fast" : "0.04",
            "Test::PAUSE::Permissions" : "0.07",
            "Test::Pod" : "1.41",
            "Test::Spellunker" : "v0.2.7"
         }
      },
      "runtime" : {
         "requires" : {
            "perl" : "5.008001"
         }
      },
      "test" : {
         "requires" : {
            "Test::More" : "0.98"
         }
      }
   },
   "release_status" : "unstable",
   "resources" : {
      "bugtracker" : {
         "web" : "https://gitlab.com/Herout/die-to-stdout/issues"
      },
      "homepage" : "https://gitlab.com/Herout/die-to-stdout",
      "repository" : {
         "type" : "git",
         "url" : "https://gitlab.com/Herout/die-to-stdout.git",
         "web" : "https://gitlab.com/Herout/die-to-stdout"
      }
   },
   "version" : "0.04",
   "x_contributors" : [
      "Jan Herout <jan.herout@o2.cz>"
   ],
   "x_serialization_backend" : "JSON::PP version 4.06",
   "x_static_install" : 1
}
